<svg xmlns="http://www.w3.org/2000/svg" width="380" height="380" fill="none" viewBox="0 0 380 380">
    <path fill="#fff" fill-rule="evenodd" d="M190 380c104.934 0 190-85.066 190-190S294.934 0 190 0 0 85.066 0 190s85.066 190 190 190z" clip-rule="evenodd" opacity=".07"/>
</svg>
